<?xml version="1.0" encoding="UTF-8" standalone="no"?>
<svg xmlns="http://www.w3.org/2000/svg" width="48" height="36" viewBox="0 0 3 2">
<rect fill="#ce1126" width="3" height="2"/>
<rect fill="#fff" y="1" width="3" height="1"/>
</svg>
